[
  "NMF26X",
  "MMB29M",
  "MRA58K",
  "NRD90M",
  "MRA58K",
  "OPM1.171019.011",
  "IMM76L",
  "JZO54K",
  "JDQ39",
  "JLS36I",
  "KTU84P",
  "LRX22C",
  "LMY48M",
  "MMB29V",
  "NRD91N",
  "N2G48C"
]
