{
  "integrations": [
    {
      "name": "xmtp",
      "displayName": "XMTP",
      "version": "0.0.0",
      "downloadManifestURL": "https://static.texts.com/integrations/platform-xmtp/manifest.json"
    },
    {
      "name": "irc",
      "displayName": "IRC",
      "version": "0.0.0",
      "downloadManifestURL": "https://static.texts.com/integrations/platform-irc/manifest.json"
    },
    {
      "name": "reddit",
      "displayName": "Reddit",
      "version": "0.0.0",
      "downloadManifestURL": "https://static.texts.com/integrations/platform-reddit/manifest.json"
    },
    {
      "name": "google-chat",
      "displayName": "Google Chat",
      "version": "0.0.0",
      "downloadManifestURL": "https://static.texts.com/integrations/platform-google-chat/manifest.json"
    },
    {
      "name": "whatsapp-baileys",
      "displayName": "WhatsApp",
      "version": "0.0.0",
      "downloadManifestURL": "https://static.texts.com/integrations/platform-whatsapp/manifest.json"
    },
    {
      "name": "telegram",
      "displayName": "Telegram",
      "version": "0.0.0",
      "downloadManifestURL": "https://static.texts.com/integrations/platform-telegram/manifest.json"
    },
    {
      "name": "matrix",
      "displayName": "Matrix",
      "version": "0.1.0",
      "downloadManifestURL": "https://static.texts.com/integrations/platform-matrix/manifest.json"
    },
    {
      "name": "Instagram",
      "displayName": "Instagram",
      "version": "0.0.0",
      "downloadManifestURL": "https://static.texts.com/integrations/platform-instagram/manifest.json"
    }
  ],
  "beta_integrations": [
    {
      "name": "test",
      "displayName": "Test",
      "version": "0.0.1",
      "downloadManifestURL": "https://static.texts.com/integrations/platform-test/manifest.json"
    }
  ]
}
