{
  "item_id": "30064847947119868907543047046168576",
  "user_id": 3427816261,
  "timestamp": "1629818672985686",
  "item_type": "media_share",
  "media_share": {
    "taken_at": 1624734317,
    "pk": "2604782702308592675",
    "id": "2604782702308592675_16644444608",
    "device_timestamp": 162473431650,
    "media_type": 8,
    "code": "CQmDBEoL4wj",
    "client_cache_key": "MjYwNDc4MjcwMjMwODU5MjY3NQ==.2",
    "filter_type": 0,
    "carousel_media_count": 9,
    "carousel_media": [
      {
        "id": "2604782697510275088_16644444608",
        "media_type": 1,
        "image_versions2": {
          "candidates": [
            {
              "width": 640,
              "height": 648,
              "url": "https://instagram.fccu19-1.fna.fbcdn.net/v/t51.2885-15/e15/p640x640/208361197_349475536608384_8850588484508102544_n.jpg?_nc_ht=instagram.fccu19-1.fna.fbcdn.net&_nc_cat=100&_nc_ohc=EzFJsoHUjbEAX8-13tW&edm=AJXOVykBAAAA&ccb=7-4&oh=be5c07d79e62e0a259b7b6e80c3961c2&oe=612B85FE&_nc_sid=9c1db7&ig_cache_key=MjYwNDc4MjY5NzUxMDI3NTA4OA%3D%3D.2-ccb7-4",
              "scans_profile": "e15",
              "estimated_scans_sizes": [
                6717,
                13435,
                20153,
                26871,
                33589,
                60461,
                60461,
                60461,
                60461
              ]
            },
            {
              "width": 360,
              "height": 364,
              "url": "https://instagram.fccu19-1.fna.fbcdn.net/v/t51.2885-15/e15/p360x360/208361197_349475536608384_8850588484508102544_n.jpg?_nc_ht=instagram.fccu19-1.fna.fbcdn.net&_nc_cat=100&_nc_ohc=EzFJsoHUjbEAX8-13tW&edm=AJXOVykBAAAA&ccb=7-4&oh=2abec9dc14806a0ed02c26523c5d92f7&oe=612C57D4&_nc_sid=9c1db7&ig_cache_key=MjYwNDc4MjY5NzUxMDI3NTA4OA%3D%3D.2-ccb7-4",
              "scans_profile": "e15",
              "estimated_scans_sizes": [
                2724,
                5448,
                8172,
                10896,
                13620,
                24517,
                24517,
                24517,
                24517
              ]
            }
          ]
        },
        "original_width": 720,
        "original_height": 729,
        "pk": "2604782697510275088",
        "carousel_parent_id": "2604782702308592675_16644444608",
        "can_see_insights_as_brand": false,
        "is_commercial": true,
        "commerciality_status": "commercial",
        "sharing_friction_info": {
          "should_have_sharing_friction": false,
          "bloks_app_url": null
        }
      },
      {
        "id": "2604782697526995891_16644444608",
        "media_type": 1,
        "image_versions2": {
          "candidates": [
            {
              "width": 1080,
              "height": 1080,
              "url": "https://instagram.fccu19-1.fna.fbcdn.net/v/t51.2885-15/fr/e15/s1080x1080/208105742_549667529748091_5174153683942675647_n.jpg?_nc_ht=instagram.fccu19-1.fna.fbcdn.net&_nc_cat=107&_nc_ohc=xNdkqyMRuloAX-piOS6&edm=AJXOVykBAAAA&ccb=7-4&oh=57bcad7938def91e8e681f5e698f1126&oe=612BA365&_nc_sid=9c1db7&ig_cache_key=MjYwNDc4MjY5NzUyNjk5NTg5MQ%3D%3D.2-ccb7-4",
              "scans_profile": "e15",
              "estimated_scans_sizes": [
                11333,
                22666,
                33999,
                45332,
                56666,
                101999,
                101999,
                101999,
                101999
              ]
            },
            {
              "width": 360,
              "height": 360,
              "url": "https://instagram.fccu19-1.fna.fbcdn.net/v/t51.2885-15/e15/s360x360/208105742_549667529748091_5174153683942675647_n.jpg?_nc_ht=instagram.fccu19-1.fna.fbcdn.net&_nc_cat=107&_nc_ohc=xNdkqyMRuloAX-piOS6&edm=AJXOVykBAAAA&ccb=7-4&oh=d1f3526673e55202a6a73a68f57dd80f&oe=612B267E&_nc_sid=9c1db7&ig_cache_key=MjYwNDc4MjY5NzUyNjk5NTg5MQ%3D%3D.2-ccb7-4",
              "scans_profile": "e15",
              "estimated_scans_sizes": [
                2173,
                4347,
                6521,
                8695,
                10868,
                19564,
                19564,
                19564,
                19564
              ]
            }
          ]
        },
        "original_width": 1080,
        "original_height": 1080,
        "pk": "2604782697526995891",
        "carousel_parent_id": "2604782702308592675_16644444608",
        "can_see_insights_as_brand": false,
        "is_commercial": true,
        "commerciality_status": "commercial",
        "sharing_friction_info": {
          "should_have_sharing_friction": false,
          "bloks_app_url": null
        }
      },
      {
        "id": "2604782697543705439_16644444608",
        "media_type": 1,
        "image_versions2": {
          "candidates": [
            {
              "width": 1080,
              "height": 1080,
              "url": "https://instagram.fccu19-1.fna.fbcdn.net/v/t51.2885-15/fr/e15/s1080x1080/208049079_1223253634782289_3647607361087658725_n.jpg?_nc_ht=instagram.fccu19-1.fna.fbcdn.net&_nc_cat=101&_nc_ohc=wwEj_IaZB1IAX9uUQ36&edm=AJXOVykBAAAA&ccb=7-4&oh=359e2033857f2e03f86c1729bde96f1e&oe=612BEEB7&_nc_sid=9c1db7&ig_cache_key=MjYwNDc4MjY5NzU0MzcwNTQzOQ%3D%3D.2-ccb7-4",
              "scans_profile": "e15",
              "estimated_scans_sizes": [
                12112,
                24224,
                36336,
                48448,
                60560,
                109008,
                109008,
                109008,
                109008
              ]
            },
            {
              "width": 360,
              "height": 360,
              "url": "https://instagram.fccu19-1.fna.fbcdn.net/v/t51.2885-15/e15/s360x360/208049079_1223253634782289_3647607361087658725_n.jpg?_nc_ht=instagram.fccu19-1.fna.fbcdn.net&_nc_cat=101&_nc_ohc=wwEj_IaZB1IAX9uUQ36&edm=AJXOVykBAAAA&ccb=7-4&oh=7d6fe760a05520a01de89ac1d13bac18&oe=612C0ABF&_nc_sid=9c1db7&ig_cache_key=MjYwNDc4MjY5NzU0MzcwNTQzOQ%3D%3D.2-ccb7-4",
              "scans_profile": "e15",
              "estimated_scans_sizes": [
                2276,
                4552,
                6828,
                9104,
                11380,
                20484,
                20484,
                20484,
                20484
              ]
            }
          ]
        },
        "original_width": 1080,
        "original_height": 1080,
        "pk": "2604782697543705439",
        "carousel_parent_id": "2604782702308592675_16644444608",
        "can_see_insights_as_brand": false,
        "is_commercial": true,
        "commerciality_status": "commercial",
        "sharing_friction_info": {
          "should_have_sharing_friction": false,
          "bloks_app_url": null
        }
      },
      {
        "id": "2604782697585659800_16644444608",
        "media_type": 1,
        "image_versions2": {
          "candidates": [
            {
              "width": 1080,
              "height": 1080,
              "url": "https://instagram.fccu19-1.fna.fbcdn.net/v/t51.2885-15/fr/e15/s1080x1080/209310272_4199286743468574_6648586348237731267_n.jpg?_nc_ht=instagram.fccu19-1.fna.fbcdn.net&_nc_cat=106&_nc_ohc=XI_Z6popjQ0AX97sm_F&edm=AJXOVykBAAAA&ccb=7-4&oh=d8576fb32145114b02a4ebb61961129f&oe=612BBA3D&_nc_sid=9c1db7&ig_cache_key=MjYwNDc4MjY5NzU4NTY1OTgwMA%3D%3D.2-ccb7-4",
              "scans_profile": "e15",
              "estimated_scans_sizes": [
                11269,
                22538,
                33808,
                45077,
                56347,
                101425,
                101425,
                101425,
                101425
              ]
            },
            {
              "width": 360,
              "height": 360,
              "url": "https://instagram.fccu19-1.fna.fbcdn.net/v/t51.2885-15/e15/s360x360/209310272_4199286743468574_6648586348237731267_n.jpg?_nc_ht=instagram.fccu19-1.fna.fbcdn.net&_nc_cat=106&_nc_ohc=XI_Z6popjQ0AX97sm_F&edm=AJXOVykBAAAA&ccb=7-4&oh=75f14a48e2fae797a9d5b448824b09d3&oe=612B78B5&_nc_sid=9c1db7&ig_cache_key=MjYwNDc4MjY5NzU4NTY1OTgwMA%3D%3D.2-ccb7-4",
              "scans_profile": "e15",
              "estimated_scans_sizes": [
                2165,
                4330,
                6496,
                8661,
                10826,
                19488,
                19488,
                19488,
                19488
              ]
            }
          ]
        },
        "original_width": 1080,
        "original_height": 1080,
        "pk": "2604782697585659800",
        "carousel_parent_id": "2604782702308592675_16644444608",
        "can_see_insights_as_brand": false,
        "is_commercial": true,
        "commerciality_status": "commercial",
        "sharing_friction_info": {
          "should_have_sharing_friction": false,
          "bloks_app_url": null
        }
      },
      {
        "id": "2604782697602367064_16644444608",
        "media_type": 1,
        "image_versions2": {
          "candidates": [
            {
              "width": 1080,
              "height": 1080,
              "url": "https://instagram.fccu19-1.fna.fbcdn.net/v/t51.2885-15/fr/e15/s1080x1080/208671406_134235325394348_145217316381147062_n.jpg?_nc_ht=instagram.fccu19-1.fna.fbcdn.net&_nc_cat=108&_nc_ohc=wdy3GoMlrXQAX9R3tvY&edm=AJXOVykBAAAA&ccb=7-4&oh=e3e163cb64ce7160953b5985c19e9b37&oe=612B8033&_nc_sid=9c1db7&ig_cache_key=MjYwNDc4MjY5NzYwMjM2NzA2NA%3D%3D.2-ccb7-4",
              "scans_profile": "e15",
              "estimated_scans_sizes": [
                11247,
                22494,
                33742,
                44989,
                56237,
                101227,
                101227,
                101227,
                101227
              ]
            },
            {
              "width": 360,
              "height": 360,
              "url": "https://instagram.fccu19-1.fna.fbcdn.net/v/t51.2885-15/e15/s360x360/208671406_134235325394348_145217316381147062_n.jpg?_nc_ht=instagram.fccu19-1.fna.fbcdn.net&_nc_cat=108&_nc_ohc=wdy3GoMlrXQAX9R3tvY&edm=AJXOVykBAAAA&ccb=7-4&oh=8ae5935461554043af3dc74aca86328e&oe=612C6B6C&_nc_sid=9c1db7&ig_cache_key=MjYwNDc4MjY5NzYwMjM2NzA2NA%3D%3D.2-ccb7-4",
              "scans_profile": "e15",
              "estimated_scans_sizes": [
                2162,
                4324,
                6487,
                8649,
                10812,
                19462,
                19462,
                19462,
                19462
              ]
            }
          ]
        },
        "original_width": 1080,
        "original_height": 1080,
        "pk": "2604782697602367064",
        "carousel_parent_id": "2604782702308592675_16644444608",
        "can_see_insights_as_brand": false,
        "is_commercial": true,
        "commerciality_status": "commercial",
        "sharing_friction_info": {
          "should_have_sharing_friction": false,
          "bloks_app_url": null
        }
      },
      {
        "id": "2604782697552127655_16644444608",
        "media_type": 1,
        "image_versions2": {
          "candidates": [
            {
              "width": 1080,
              "height": 1080,
              "url": "https://instagram.fccu19-1.fna.fbcdn.net/v/t51.2885-15/fr/e15/s1080x1080/207663205_334128318170595_7728829437833476446_n.jpg?_nc_ht=instagram.fccu19-1.fna.fbcdn.net&_nc_cat=103&_nc_ohc=6uAYaUMrXxEAX9k6L0X&edm=AJXOVykBAAAA&ccb=7-4&oh=561a013122aaa37436513aaa5ff3d005&oe=612C5C09&_nc_sid=9c1db7&ig_cache_key=MjYwNDc4MjY5NzU1MjEyNzY1NQ%3D%3D.2-ccb7-4",
              "scans_profile": "e15",
              "estimated_scans_sizes": [
                10252,
                20505,
                30758,
                41010,
                51263,
                92274,
                92274,
                92274,
                92274
              ]
            },
            {
              "width": 360,
              "height": 360,
              "url": "https://instagram.fccu19-1.fna.fbcdn.net/v/t51.2885-15/e15/s360x360/207663205_334128318170595_7728829437833476446_n.jpg?_nc_ht=instagram.fccu19-1.fna.fbcdn.net&_nc_cat=103&_nc_ohc=6uAYaUMrXxEAX9k6L0X&edm=AJXOVykBAAAA&ccb=7-4&oh=cf666b5c8f789df3dc37c15e21dd03e4&oe=612C5B92&_nc_sid=9c1db7&ig_cache_key=MjYwNDc4MjY5NzU1MjEyNzY1NQ%3D%3D.2-ccb7-4",
              "scans_profile": "e15",
              "estimated_scans_sizes": [
                2028,
                4056,
                6085,
                8113,
                10142,
                18256,
                18256,
                18256,
                18256
              ]
            }
          ]
        },
        "original_width": 1080,
        "original_height": 1080,
        "pk": "2604782697552127655",
        "carousel_parent_id": "2604782702308592675_16644444608",
        "can_see_insights_as_brand": false,
        "is_commercial": true,
        "commerciality_status": "commercial",
        "sharing_friction_info": {
          "should_have_sharing_friction": false,
          "bloks_app_url": null
        }
      },
      {
        "id": "2604782697518625328_16644444608",
        "media_type": 1,
        "image_versions2": {
          "candidates": [
            {
              "width": 1080,
              "height": 1080,
              "url": "https://instagram.fccu19-1.fna.fbcdn.net/v/t51.2885-15/fr/e15/s1080x1080/207540903_786716278707275_4717709938974904327_n.jpg?_nc_ht=instagram.fccu19-1.fna.fbcdn.net&_nc_cat=111&_nc_ohc=JCTYxz0Z_doAX-tRQ5J&edm=AJXOVykBAAAA&ccb=7-4&oh=4407be8176420dd954151ab5bca9be64&oe=612C56AF&_nc_sid=9c1db7&ig_cache_key=MjYwNDc4MjY5NzUxODYyNTMyOA%3D%3D.2-ccb7-4",
              "scans_profile": "e15",
              "estimated_scans_sizes": [
                11347,
                22695,
                34043,
                45390,
                56738,
                102129,
                102129,
                102129,
                102129
              ]
            },
            {
              "width": 360,
              "height": 360,
              "url": "https://instagram.fccu19-1.fna.fbcdn.net/v/t51.2885-15/e15/s360x360/207540903_786716278707275_4717709938974904327_n.jpg?_nc_ht=instagram.fccu19-1.fna.fbcdn.net&_nc_cat=111&_nc_ohc=JCTYxz0Z_doAX-tRQ5J&edm=AJXOVykBAAAA&ccb=7-4&oh=1c17a9ac4f8e31650f6ef9aab4a4e50b&oe=612C1F78&_nc_sid=9c1db7&ig_cache_key=MjYwNDc4MjY5NzUxODYyNTMyOA%3D%3D.2-ccb7-4",
              "scans_profile": "e15",
              "estimated_scans_sizes": [
                2175,
                4351,
                6527,
                8703,
                10878,
                19582,
                19582,
                19582,
                19582
              ]
            }
          ]
        },
        "original_width": 1080,
        "original_height": 1080,
        "pk": "2604782697518625328",
        "carousel_parent_id": "2604782702308592675_16644444608",
        "can_see_insights_as_brand": false,
        "is_commercial": true,
        "commerciality_status": "commercial",
        "sharing_friction_info": {
          "should_have_sharing_friction": false,
          "bloks_app_url": null
        }
      },
      {
        "id": "2604782697560603749_16644444608",
        "media_type": 1,
        "image_versions2": {
          "candidates": [
            {
              "width": 1080,
              "height": 1080,
              "url": "https://instagram.fccu19-1.fna.fbcdn.net/v/t51.2885-15/fr/e15/s1080x1080/208610191_844923549448194_892102671714938144_n.jpg?_nc_ht=instagram.fccu19-1.fna.fbcdn.net&_nc_cat=106&_nc_ohc=9YSzpnAEzzIAX_ujDlW&edm=AJXOVykBAAAA&ccb=7-4&oh=2da8f61b45ec290cb50b87dc60b4f02e&oe=612C6C6C&_nc_sid=9c1db7&ig_cache_key=MjYwNDc4MjY5NzU2MDYwMzc0OQ%3D%3D.2-ccb7-4",
              "scans_profile": "e15",
              "estimated_scans_sizes": [
                9531,
                19063,
                28595,
                38127,
                47659,
                85787,
                85787,
                85787,
                85787
              ]
            },
            {
              "width": 360,
              "height": 360,
              "url": "https://instagram.fccu19-1.fna.fbcdn.net/v/t51.2885-15/e15/s360x360/208610191_844923549448194_892102671714938144_n.jpg?_nc_ht=instagram.fccu19-1.fna.fbcdn.net&_nc_cat=106&_nc_ohc=9YSzpnAEzzIAX_ujDlW&edm=AJXOVykBAAAA&ccb=7-4&oh=0c731266f242169c14ff47d0dcf2d75d&oe=612B9F73&_nc_sid=9c1db7&ig_cache_key=MjYwNDc4MjY5NzU2MDYwMzc0OQ%3D%3D.2-ccb7-4",
              "scans_profile": "e15",
              "estimated_scans_sizes": [
                1928,
                3857,
                5786,
                7715,
                9644,
                17360,
                17360,
                17360,
                17360
              ]
            }
          ]
        },
        "original_width": 1080,
        "original_height": 1080,
        "pk": "2604782697560603749",
        "carousel_parent_id": "2604782702308592675_16644444608",
        "can_see_insights_as_brand": false,
        "is_commercial": true,
        "commerciality_status": "commercial",
        "sharing_friction_info": {
          "should_have_sharing_friction": false,
          "bloks_app_url": null
        }
      },
      {
        "id": "2604782697577340344_16644444608",
        "media_type": 1,
        "image_versions2": {
          "candidates": [
            {
              "width": 640,
              "height": 640,
              "url": "https://instagram.fccu19-1.fna.fbcdn.net/v/t51.2885-15/e15/s640x640/209095166_177956304344665_5685917154320055464_n.jpg?_nc_ht=instagram.fccu19-1.fna.fbcdn.net&_nc_cat=101&_nc_ohc=deFtEOt3xGUAX-my4GV&edm=AJXOVykBAAAA&ccb=7-4&oh=dd7d7359c12910366ea3b09e35950f1e&oe=612C2D26&_nc_sid=9c1db7&ig_cache_key=MjYwNDc4MjY5NzU3NzM0MDM0NA%3D%3D.2-ccb7-4",
              "scans_profile": "e15",
              "estimated_scans_sizes": [
                4634,
                9268,
                13903,
                18537,
                23171,
                41709,
                41709,
                41709,
                41709
              ]
            },
            {
              "width": 360,
              "height": 360,
              "url": "https://instagram.fccu19-1.fna.fbcdn.net/v/t51.2885-15/e15/s360x360/209095166_177956304344665_5685917154320055464_n.jpg?_nc_ht=instagram.fccu19-1.fna.fbcdn.net&_nc_cat=101&_nc_ohc=deFtEOt3xGUAX-my4GV&edm=AJXOVykBAAAA&ccb=7-4&oh=9e14ff32d7d32890eb504bc5c8cb9042&oe=612B970C&_nc_sid=9c1db7&ig_cache_key=MjYwNDc4MjY5NzU3NzM0MDM0NA%3D%3D.2-ccb7-4",
              "scans_profile": "e15",
              "estimated_scans_sizes": [
                2105,
                4210,
                6315,
                8420,
                10525,
                18945,
                18945,
                18945,
                18945
              ]
            }
          ]
        },
        "original_width": 720,
        "original_height": 720,
        "pk": "2604782697577340344",
        "carousel_parent_id": "2604782702308592675_16644444608",
        "can_see_insights_as_brand": false,
        "is_commercial": true,
        "commerciality_status": "commercial",
        "sharing_friction_info": {
          "should_have_sharing_friction": false,
          "bloks_app_url": null
        }
      }
    ],
    "can_see_insights_as_brand": false,
    "is_unified_video": false,
    "user": {
      "pk": 16644444608,
      "username": "addyist",
      "full_name": "Addy Osmani",
      "is_private": false,
      "profile_pic_url": "https://instagram.fccu19-1.fna.fbcdn.net/v/t51.2885-19/s150x150/235784417_141840721359145_7109869179426115212_n.jpg?_nc_ht=instagram.fccu19-1.fna.fbcdn.net&_nc_ohc=Ef9C3_tBf2oAX9BnHi1&edm=AJXOVykBAAAA&ccb=7-4&oh=e910b9921c4c3df5bab37431611b13de&oe=612C9C95&_nc_sid=9c1db7",
      "profile_pic_id": "2639012769522161201_16644444608",
      "friendship_status": {
        "following": true,
        "outgoing_request": false,
        "is_bestie": false,
        "is_restricted": false
      },
      "has_anonymous_profile_picture": false,
      "is_unpublished": false,
      "is_favorite": false,
      "latest_reel_media": 0,
      "account_badges": []
    },
    "can_viewer_reshare": true,
    "caption_is_edited": true,
    "like_and_view_counts_disabled": false,
    "is_commercial": true,
    "commerciality_status": "commercial",
    "is_paid_partnership": false,
    "playlist_eligibility": false,
    "comment_likes_enabled": false,
    "comment_threading_enabled": true,
    "has_more_comments": false,
    "max_num_visible_preview_comments": 3,
    "can_view_more_preview_comments": false,
    "comment_count": 0,
    "hide_view_all_comment_entrypoint": false,
    "like_count": 421,
    "has_liked": false,
    "photo_of_you": false,
    "caption": {
      "pk": "17892682358225301",
      "user_id": 16644444608,
      "text": "Excited physical copies of my new book started shipping this month! Image Optimization is out on @smashingmagazine if interested :) Link in profile 🔗\n\nWe tried to find the right balance of technical background, visuals, code, tips and tricks while working on it. It's been humbling to hear folks have been enjoying it so far. The book wouldn't have been possible without an amazing team who put a lot of thought and care into the layout, helped me improve illustrations and provided lots of valuable feedback on the guidance during production.\n\nWhile this book did just launch, we're almost done with the next book - a rewrite of my JavaScript design patterns book from ten years ago. Can't wait to get the next one out!",
      "type": 1,
      "created_at": 1626203667,
      "created_at_utc": 1626203667,
      "content_type": "comment",
      "status": "Active",
      "bit_flags": 0,
      "did_report_as_spam": false,
      "share_enabled": false,
      "user": {
        "pk": 16644444608,
        "username": "addyist",
        "full_name": "Addy Osmani",
        "is_private": false,
        "profile_pic_url": "https://instagram.fccu19-1.fna.fbcdn.net/v/t51.2885-19/s150x150/235784417_141840721359145_7109869179426115212_n.jpg?_nc_ht=instagram.fccu19-1.fna.fbcdn.net&_nc_ohc=Ef9C3_tBf2oAX9BnHi1&edm=AJXOVykBAAAA&ccb=7-4&oh=e910b9921c4c3df5bab37431611b13de&oe=612C9C95&_nc_sid=9c1db7",
        "profile_pic_id": "2639012769522161201_16644444608",
        "friendship_status": {
          "following": true,
          "outgoing_request": false,
          "is_bestie": false,
          "is_restricted": false
        },
        "has_anonymous_profile_picture": false,
        "is_unpublished": false,
        "is_favorite": false,
        "latest_reel_media": 0,
        "account_badges": []
      },
      "is_covered": false,
      "media_id": "2604782702308592675",
      "private_reply_status": 0
    },
    "can_viewer_save": true,
    "organic_tracking_token": "eyJ2ZXJzaW9uIjo1LCJwYXlsb2FkIjp7ImlzX2FuYWx5dGljc190cmFja2VkIjp0cnVlLCJ1dWlkIjoiNzNlOTJjNjg1NWNiNGM5MmI4NzhiYjEwNGJjNDIxZDgyNjA0NzgyNzAyMzA4NTkyNjc1Iiwic2VydmVyX3Rva2VuIjoiMTYyOTgxOTg0OTM0NHwyNjA0NzgyNzAyMzA4NTkyNjc1fDM0Mjc4MTYyNjF8ZmRiYTcxMmNjMDdkZDY3ZmRmZjY5NTliYWJkMTA0NTQ0NWQzY2IwZDgwZmQwNWJiOTM5MTIwZWNhYzhmZmY1ZCJ9LCJzaWduYXR1cmUiOiIifQ==",
    "sharing_friction_info": {
      "should_have_sharing_friction": false,
      "bloks_app_url": null
    },
    "product_type": "carousel_container",
    "is_in_profile_grid": false,
    "profile_grid_control_enabled": false,
    "deleted_reason": 0,
    "integrity_review_decision": "pending",
    "carousel_share_child_media_id": "2604782697510275088_16644444608"
  },
  "client_context": "6835954976702590982",
  "show_forward_attribution": false,
  "is_shh_mode": false,
  "tq_seq_id": 27
}
