{
  "path": "/direct_v2/threads/340282366841710300949128114690012619541/items/30456810691795979323501536086065152",
  "op": "add",
  "itemId": "30456810691795979323501536086065152",
  "threadId": "340282366841710300949128114690012619541",
  "item_id": "30456810691795979323501536086065152",
  "user_id": 6205999996,
  "timestamp": 1651067015951247,
  "item_type": "music",
  "music": [
    {
      "attachment_index": 1,
      "xma_layout_type": 0,
      "preview_layout_type": 0,
      "is_sharable": true,
      "title_text": "Black Mambo - Stripped",
      "max_title_num_of_lines": 0,
      "subtitle_text": "Spotify",
      "max_subtitle_num_of_lines": 0,
      "preview_url_info": {
        "url": "https://external.xx.fbcdn.net/safe_image.php?url=https%3A%2F%2Fi.scdn.co%2Fimage%2Fab67616d0000b273044abb45417b2b039cd7c2a2&cfs=1&upscale=1&ext=jpg&_nc_oe=6fff1&_nc_sid=cdc836&ccb=3-6&_nc_hash=AQEx219Z8Kh3bAgH",
        "width": 240,
        "height": 240
      },
      "preview_width": 240,
      "preview_height": 240,
      "should_respect_server_preview_size": true,
      "header_icon_url_info": null,
      "preview_extra_urls_info": [],
      "target_url": "https://open.spotify.com/track/1FhvSbjZmQQ5qeKXo6JilC?si=c405755e32b54d2c",
      "playable_audio_url": "https://p.scdn.co/mp3-preview/6fb8922eb81cdb869f4caed565780b5dc4643037?cid=162b7dc01f3a4a2ca32ed3cec83d1e02",
      "caption_body_text": "Glass Animals"
    }
  ],
  "client_context": "6925076975724950111",
  "is_shh_mode": false
}
