[
  {
    "msgRowID": 10061,
    "msgID": "92006E01-1874-43AD-8F8E-D98F7FF93C30",
    "ROWID": 10061,
    "guid": "92006E01-1874-43AD-8F8E-D98F7FF93C30",
    "text": null,
    "replace": 0,
    "service_center": null,
    "handle_id": 421,
    "subject": null,
    "country": null,
    "version": 10,
    "type": 0,
    "service": "iMessage",
    "account": "E:me@1conan.com",
    "account_guid": "BA7A934B-DEAA-4609-AC2F-E7646DF7FA2F",
    "error": 0,
    "date": 676558543155999900,
    "date_read": 0,
    "date_delivered": 676558543678664400,
    "is_delivered": 1,
    "is_finished": 1,
    "is_emote": 0,
    "is_from_me": 1,
    "is_empty": 0,
    "is_delayed": 0,
    "is_auto_reply": 0,
    "is_prepared": 0,
    "is_read": 0,
    "is_system_message": 0,
    "is_sent": 1,
    "has_dd_results": 0,
    "is_service_message": 0,
    "is_forward": 0,
    "was_downgraded": 0,
    "is_archive": 0,
    "cache_has_attachments": 0,
    "cache_roomnames": null,
    "was_data_detected": 1,
    "was_deduplicated": 0,
    "is_audio_message": 0,
    "is_played": 0,
    "date_played": 0,
    "item_type": 0,
    "other_handle": 0,
    "group_title": null,
    "group_action_type": 0,
    "share_status": 0,
    "share_direction": 0,
    "is_expirable": 0,
    "expire_state": 0,
    "message_action_type": 0,
    "message_source": 0,
    "associated_message_guid": null,
    "associated_message_type": 0,
    "balloon_bundle_id": null,
    "payload_data": null,
    "expressive_send_style_id": null,
    "associated_message_range_location": 0,
    "associated_message_range_length": 0,
    "time_expressive_send_played": 0,
    "ck_sync_state": 0,
    "ck_record_id": "",
    "ck_record_change_tag": "",
    "destination_caller_id": "me@1conan.com",
    "is_corrupt": 0,
    "reply_to_guid": "E6CC6557-BA5C-4BE1-A0DE-E577F9BFAF3B",
    "sort_id": 0,
    "is_spam": 0,
    "has_unseen_mention": 0,
    "thread_originator_guid": null,
    "thread_originator_part": null,
    "syndication_ranges": null,
    "synced_syndication_ranges": null,
    "was_delivered_quietly": 1,
    "did_notify_recipient": 0,
    "date_retracted": 0,
    "date_edited": 0,
    "was_detonated": 0,
    "part_count": 1,
    "threadID": "iMessage;-;hi@kishan.info",
    "room_name": null,
    "participantID": "hi@kishan.info",
    "otherID": null
  },
  [
    {
      "msgRowID": 10061,
      "filename": null,
      "transfer_name": null,
      "is_sticker": null,
      "attachmentID": null,
      "transfer_state": null,
      "ext": "",
      "fileName": null,
      "filePath": null
    }
  ],
  "me@1conan.com"
]
